…
7. Status and Trend calculation exploration
-------------------------------------------

Status and trend are calculated in functions.r but code is tested and explored here.

### 7.1 Assign data layer

``` r
  liv_regional_employ
```

    ## # A tibble: 765 × 3
    ##    rgn_id  year employ_pop_bhi
    ##     <int> <int>          <dbl>
    ## 1       1  2000       437489.2
    ## 2       1  2001       453582.1
    ## 3       1  2002       456333.1
    ## 4       1  2003       455559.4
    ## 5       1  2004       450152.1
    ## 6       1  2005       441190.0
    ## 7       1  2006       448127.5
    ## 8       1  2007       451389.9
    ## 9       1  2008       450736.5
    ## 10      1  2009       434213.7
    ## # ... with 755 more rows
…
