…
``` r
write.csv(tr_layer, file.path(dir_layers,"tr_accommodation_stays_bhi2015.csv"),row.names = FALSE)
```

6. Explore Status and Trend calculation
---------------------------------------

Moving window reference \#\#\# 6.1 Read in layers

``` r
tr_layer 
```

    ## # A tibble: 570 × 3
    ##    rgn_id  year bhi_coastal_stays_per_cap
    ##     <int> <int>                     <dbl>
    ## 1       1  2000                  10.38301
    ## 2       1  2001                  10.69379
    ## 3       1  2002                  11.44138
    ## 4       1  2003                  12.20062
    ## 5       1  2004                  11.68924
    ## 6       1  2005                  12.03392
    ## 7       1  2006                  12.73509
    ## 8       1  2007                  12.81149
    ## 9       1  2008                  12.61057
    ## 10      1  2009                  13.09295
    ## # ... with 560 more rows
…
