…
### 3.8 Evaluate number of stations sampled in each basin

Very different number of unique lat-lon locations by month and basin.
Sometimes lat-lon is not good to use because recording specific ship location which might be vary even though ship is at the same station. More duplicates were detected in the data however when station was not included, than when lat and lon were not included as the location identifier.

``` r
basin_summary = summer %>% group_by(basin_name,year,month)%>%
                dplyr::select(year, month,lat,lon,basin_name)%>%
                summarise(loc_count = n_distinct(lat,lon))
basin_summary
```

    ## Source: local data frame [631 x 4]
    ## Groups: basin_name, year [?]
    ## 
    ##    basin_name  year month loc_count
    ##        <fctr> <int> <int>     <int>
    ## 1   Aland Sea  2000     6         1
    ## 2   Aland Sea  2001     6         1
    ## 3   Aland Sea  2002     6         1
    ## 4   Aland Sea  2003     6         1
    ## 5   Aland Sea  2003     8         1
    ## 6   Aland Sea  2004     6         1
    ## 7   Aland Sea  2004     8         1
    ## 8   Aland Sea  2005     6         2
    ## 9   Aland Sea  2005     8         1
    ## 10  Aland Sea  2006     7         1
    ## # ... with 621 more rows
…
    - This is if there is no temporal gapfilling.  
    - Most basins can have the status calculated for **2013** with the **exception** of: *Aland Sea (2012)*, *Great Belt (2011)*, *Gulf of Finland (2012), *Gulf of Riga (2012)*, *The Quark (2012)*  
    - No data for the Sound  
    - One option is no gap filling and calculating the status for differenet final years and over a different 5 year period

``` r
## get the last year of non-NA data
last_year = secchi_target%>%
            filter(!is.na(mean_secchi))%>%
            group_by(basin_name)%>%
            summarise(last_year = last(year)) %>%
            print(n=15)
```

    ## # A tibble: 16 x 2
    ##                basin_name last_year
    ##                     <chr>     <int>
    ## 1               Aland Sea      2012
    ## 2            Arkona Basin      2013
    ## 3      Bay of Mecklenburg      2013
    ## 4          Bornholm Basin      2013
    ## 5            Bothnian Bay      2013
    ## 6            Bothnian Sea      2013
    ## 7   Eastern Gotland Basin      2013
    ## 8            Gdansk Basin      2013
    ## 9              Great Belt      2009
    ## 10        Gulf of Finland      2012
    ## 11           Gulf of Riga      2012
    ## 12               Kattegat      2013
    ## 13               Kiel Bay      2013
    ## 14 Northern Baltic Proper      2013
    ## 15              The Quark      2012
    ## # ... with 1 more rows
…
``` r
## Define constants for status calculation

  min_year = 2000        # earliest year to use as a start for regr_length timeseries
                          ##data already filtered for 
  regr_length = 10       # number of years to use for regression
  future_year = 5        # the year at which we want the likely future status
  min_regr_length = 5    # min actual number of years with data to use for regression.

  
## Basin data with target
  secchi_target
```

    ## # A tibble: 214 x 4
    ##     year            basin_name mean_secchi target_secchi
    ##    <int>                 <chr>       <dbl>         <dbl>
    ## 1   2000             Aland Sea         5.5           6.9
    ## 2   2000          Arkona Basin         8.0           7.2
    ## 3   2000    Bay of Mecklenburg         6.7           7.1
    ## 4   2000        Bornholm Basin         7.0           7.1
    ## 5   2000          Bothnian Bay         2.5           5.8
    ## 6   2000          Bothnian Sea         2.8           6.8
    ## 7   2000 Eastern Gotland Basin         6.6           7.6
    ## 8   2000          Gdansk Basin         6.7           6.5
    ## 9   2000            Great Belt         6.9           8.5
    ## 10  2000       Gulf of Finland         4.8           5.5
    ## # ... with 204 more rows
…
