…
#### 5.3.4 Calculate the GDP fraction for BHI region based on the population fraction

``` r
nuts3_bhi_join2 = nuts3_bhi_join %>%
                  mutate(bhi_pop_prop = pop / pop_nuts3,
                         bhi_gdp_prop = as.numeric(value) * bhi_pop_prop) %>%
                  arrange(rgn_id, year)

nuts3_bhi_join2 %>% select(nuts3, country,pop_nuts3, pop,bhi_pop_prop) %>% distinct() %>% arrange(nuts3)
```

    ## # A tibble: 96 × 5
    ##    nuts3 country  pop_nuts3        pop bhi_pop_prop
    ##    <chr>   <chr>      <dbl>      <dbl>        <dbl>
    ## 1  DE803 Germany 105024.212 105024.212    1.0000000
    ## 2  DEF01 Germany  16467.534  16467.534    1.0000000
    ## 3  DEF02 Germany 145273.517 145273.517    1.0000000
    ## 4  DEF03 Germany 114809.686 114809.686    1.0000000
    ## 5  DEF06 Germany   2491.966   2491.966    1.0000000
    ## 6  DEF08 Germany 183904.548  24640.190    0.1339836
    ## 7  DEF08 Germany 183904.548 159264.358    0.8660164
    ## 8  DEF0A Germany 128095.277 128095.277    1.0000000
    ## 9  DEF0B Germany 143378.170 143378.170    1.0000000
    ## 10 DEF0C Germany 135392.556 109967.002    0.8122086
    ## # ... with 86 more rows
…
