…
``` r
## assign basin values to BHI regions
ices6_mean_basin_rgn = ices6_mean_basin %>%
                         full_join(., select(lookup_basins,rgn_id,basin),by=c("basin_name"="basin"))%>%
                          mutate(mean_type="basin")
ices6_mean_basin_rgn
```

    ## # A tibble: 43 × 6
    ##        basin_name ices6_mean_ug_kg num_obs num_loc rgn_id mean_type
    ##             <chr>            <dbl>   <int>   <int>  <int>     <chr>
    ## 1    Arkona Basin             9.18       7       4     11     basin
    ## 2    Arkona Basin             9.18       7       4     12     basin
    ## 3    Arkona Basin             9.18       7       4     13     basin
    ## 4  Bornholm Basin             5.98      21       4     14     basin
    ## 5  Bornholm Basin             5.98      21       4     15     basin
    ## 6  Bornholm Basin             5.98      21       4     16     basin
    ## 7  Bornholm Basin             5.98      21       4     17     basin
    ## 8    Bothnian Bay             2.89      19       4     41     basin
    ## 9    Bothnian Bay             2.89      19       4     42     basin
    ## 10   Bothnian Sea             6.18      22       4     37     basin
    ## # ... with 33 more rows
…
### 5.12 Dioxin status value

#### 5.12.1 Calculate status

Xteq\_status = 1 / (dioxin + dioxin-like pcb teq value / teq threshold )

``` r
dioxin_teq_status = rgn_teq_basin_mean %>%
                    mutate(teq_ratio = basin_mean_teq/ teq_threshold_pg_g,
                           teq_status = 1 / teq_ratio,
                           teq_status_adj = pmin (1, teq_status)) ## value cannot exceed 1
dioxin_teq_status
```

    ## # A tibble: 42 × 6
    ##    rgn_id basin_mean_teq teq_threshold_pg_g teq_ratio teq_status
    ##     <int>          <dbl>              <dbl>     <dbl>      <dbl>
    ## 1       1       0.903283                6.5 0.1389666   7.195973
    ## 2       2       0.903283                6.5 0.1389666   7.195973
    ## 3       3             NA                 NA        NA         NA
    ## 4       4             NA                 NA        NA         NA
    ## 5       5             NA                 NA        NA         NA
    ## 6       6             NA                 NA        NA         NA
    ## 7       7             NA                 NA        NA         NA
    ## 8       8             NA                 NA        NA         NA
    ## 9       9             NA                 NA        NA         NA
    ## 10     10             NA                 NA        NA         NA
    ## # ... with 32 more rows, and 1 more variables: teq_status_adj <dbl>
…
